<svg xmlns="http://www.w3.org/2000/svg" xml:space="preserve" width="512" height="512" viewBox="0 0 126.893 126.739">
  <path d="M57.498 126.578c-14.547-1.51-27.694-7.625-38.432-17.875l-2.185-2.085.002 6.31c.001 7.065-.098 7.552-1.801 8.852-1.335 1.018-3.527 1.018-4.862 0-1.852-1.413-1.827-1.207-1.744-14.34.072-11.41.09-11.786.62-12.495.3-.402.874-.976 1.275-1.276.709-.529 1.086-.547 12.495-.62 13.134-.082 12.927-.107 14.34 1.745 1.018 1.335 1.018 3.527 0 4.862-1.266 1.66-1.883 1.8-7.926 1.813l-5.384.01 2.116 2.022c14.345 13.701 36.093 18.435 55.04 11.98 25.596-8.72 41.08-34.65 36.626-61.337-.664-3.98-.574-4.953.58-6.266 1.953-2.226 5.665-1.682 6.835 1.001 1.129 2.59 2.004 10.914 1.759 16.728-.594 14.062-5.361 26.77-14.144 37.703-9.796 12.195-24.572 20.596-40.261 22.89-3.423.501-11.74.711-14.95.378zm-26.506-38.31c-2.047-.708-3.612-2.128-4.636-4.208-.754-1.531-.872-2.044-.87-3.763 0-1.594.138-2.28.691-3.445.38-.8 7.382-12.885 15.56-26.855 9.673-16.524 15.247-25.788 15.95-26.51 1.57-1.61 3.323-2.313 5.764-2.313 2.44 0 4.194.703 5.764 2.314.703.721 6.277 9.985 15.95 26.509 8.178 13.97 15.18 26.055 15.56 26.855.553 1.166.69 1.85.692 3.445.002 1.723-.117 2.23-.88 3.782-.634 1.286-1.254 2.085-2.2 2.833-2.47 1.952-.465 1.847-35 1.838-29.065-.008-31.059-.038-32.345-.483zm50.264-28.151a541300.49 541300.49 0 0 1-14.8-25.334c-1.659-2.837-3.082-5.135-3.164-5.106-.082.03-6.686 11.32-14.676 25.09a30165.607 30165.607 0 0 1-14.678 25.28c-.093.15 11.375.244 29.477.244h29.628zm-19.61 15.511c-.483-.246-1.197-.866-1.587-1.377-.928-1.217-1.01-3.572-.163-4.706 2.424-3.247 7.276-2.086 7.719 1.847.356 3.156-3.174 5.66-5.969 4.236zm0-12.7c-.483-.246-1.197-.866-1.587-1.377l-.709-.93V52.75c0-7.539.023-7.904.546-8.604 1.03-1.38 1.884-1.821 3.529-1.821 1.245 0 1.692.13 2.457.712 1.733 1.323 1.802 1.696 1.802 9.739 0 8.018-.073 8.419-1.768 9.712-1.152.879-3.03 1.073-4.27.441zm-58 16.768C2.127 78.931 1.45 77.574.9 74.206c-1.421-8.714-1.16-17.27.775-25.4 2.143-9.005 6.59-18.056 12.472-25.38C24.13 10.993 39.158 2.607 55.514.341c3.68-.51 12.885-.437 16.668.131 7.043 1.058 13.481 3.1 19.712 6.25 6.112 3.092 11.008 6.56 15.934 11.287l2.176 2.089.073-6.662c.08-7.333.075-7.31 1.895-8.668 1.136-.848 3.488-.765 4.71.167 1.822 1.39 1.802 1.241 1.802 13.972 0 12.73.02 12.582-1.802 13.972l-.934.713-11.738.074c-13.105.082-12.902.107-14.314-1.745-.932-1.222-1.015-3.574-.167-4.71 1.324-1.774 1.463-1.809 7.717-1.954l5.712-.132-2.172-2.042C84.34 7.619 59.556 3.964 39.242 14.005c-5.664 2.8-9.677 5.657-14.253 10.146-4.77 4.68-8.085 9.241-10.908 15.011-5.268 10.767-6.874 22.516-4.7 34.398.51 2.795.365 3.989-.63 5.172-1.35 1.605-3.159 1.946-5.106.964z"/>
</svg>
