<svg xmlns="http://www.w3.org/2000/svg" xml:space="preserve" width="389.163" height="340" viewBox="0 0 102.966 89.958">
  <path fill="#cbe6ff" d="M11.471 79.03S-3.541 69.56.781 60.05c2.542-5.591 13.585-3.51 12.413-12.813-1.52-12.2-13.643-20.419-6.659-30.852C13.727 5.643 31.722 18.456 49.3 7.09c11.346-7.337 31.54-11.447 38.859.224 7.002 11.143-6.976 23.533 3.172 31.865 10.148 8.333 21.77 20.89-3.884 35.694-25.653 14.804-46.192 3.376-46.192 3.376"/>
  <path fill="#e2f1ff" d="M9.678 29.813c-2.663-.423-.17 7.367 3.63 6.363 3.802-1.004-1.398-6.006-3.63-6.363zm-1.483-4.411c-1.52.548-1.002 3.852 1.25 3.15 2.25-.704.244-3.69-1.25-3.15z"/>
  <path fill="#246d79" d="M19.603 59.57c.432.36.716.866.799 1.422a2.398 2.398 0 0 1-1.481-.7.5.5 0 0 1-.024-.698.514.514 0 0 1 .706-.024z"/>
  <path fill="#246d79" d="M17.864 56.762a.515.515 0 0 1 .69-.112c.385.234.689.582.868.996a45.425 45.425 0 0 0-.706-1.973c-.077-.205.234-.338.312-.133.048.122.09.245.136.365a1.395 1.395 0 0 1 .103-.711.345.345 0 0 1 .419-.21.336.336 0 0 1 .21.417c-.1.345-.312.646-.602.858.236.642.46 1.289.669 1.94a2.11 2.11 0 0 1 .138-1.184.509.509 0 0 1 .618-.31.497.497 0 0 1 .31.619 2.396 2.396 0 0 1-.936 1.296c.179.567.35 1.14.506 1.712l.064.242a2.66 2.66 0 0 1 .184-1.432.644.644 0 0 1 .786-.394.631.631 0 0 1 .394.785 3.024 3.024 0 0 1-1.201 1.656c.113.446.22.89.322 1.331.013-.306.084-.606.208-.887a.646.646 0 0 1 .783-.394.63.63 0 0 1 .394.786 3.04 3.04 0 0 1-1.145 1.618c.106.533.207 1.065.298 1.598.035.197.064.396.096.596.005-.29.088-.575.24-.822a.401.401 0 0 1 .654-.078.393.393 0 0 1 .051.437 1.898 1.898 0 0 1-.868.908c.087.589.163 1.179.23 1.77.023.218-.312.266-.336.05a52.755 52.755 0 0 0-.288-2.15 1.91 1.91 0 0 1-1.22-.155.394.394 0 0 1-.197-.511.402.402 0 0 1 .511-.197c.364.131.674.38.882.706a51.15 51.15 0 0 0-.49-2.647l-.013-.063a2.398 2.398 0 0 1-1.476-.7.5.5 0 0 1-.024-.698.514.514 0 0 1 .698-.024c.338.268.587.632.716 1.043a50.876 50.876 0 0 0-1.18-4.363c-.04-.128-.085-.253-.128-.378a2.398 2.398 0 0 1-1.55-.506.503.503 0 0 1-.13-.697z"/>
  <path fill="#249c9c" d="M14.297 64.637a9.285 9.285 0 0 1-1.973 1.248 9.122 9.122 0 0 1-2.355.716 9.115 9.115 0 0 1 2.07-1.33 9.332 9.332 0 0 1 2.181-.688 30.69 30.69 0 0 0-.919-.65 7.368 7.368 0 0 1-3.625 1.665 7.536 7.536 0 0 1 1.707-1.1 7.636 7.636 0 0 1 1.891-.583 29.08 29.08 0 0 0-1.19-.769c-.305.237-.636.44-.986.604a5.1 5.1 0 0 1-1.316.4c.35-.3.74-.55 1.156-.746.327-.15.668-.266 1.018-.346-.208-.128-.416-.266-.629-.38a.349.349 0 0 1-.066-.485.357.357 0 0 1 .485-.067c.492.285.974.586 1.451.897a7.714 7.714 0 0 1-.415-1.618 7.522 7.522 0 0 1 0-2.031c.27.623.456 1.28.551 1.954.079.598.087 1.204.024 1.805.413.266.82.55 1.22.844-.151-.79-.21-1.594-.176-2.396a10.14 10.14 0 0 1 .506-2.684c.205.892.289 1.807.248 2.72a10.37 10.37 0 0 1-.432 2.46c.25.184.498.37.744.562.024-.872.148-1.738.37-2.582.264-.971.658-1.903 1.172-2.768a11.137 11.137 0 0 1-.37 2.984 11.41 11.41 0 0 1-1.015 2.494c.264.21.53.423.799.642.168-.81.423-1.599.762-2.354.415-.914.953-1.769 1.598-2.54a11.14 11.14 0 0 1-.855 2.884 11.466 11.466 0 0 1-1.332 2.183c.208.178.418.356.62.532a11.427 11.427 0 0 1 1.948-1.523 11.16 11.16 0 0 1 2.756-1.203 11.147 11.147 0 0 1-2.322 1.912 11.41 11.41 0 0 1-2.163 1.016c.241.222.48.447.714.674a11.407 11.407 0 0 1 2.442-1.089 11.15 11.15 0 0 1 2.992-.447 11.15 11.15 0 0 1-2.728 1.267c-.821.246-1.667.399-2.522.455.162.163.327.32.487.485.09.093.176.186.266.28.766-.288 1.56-.492 2.368-.61a11.153 11.153 0 0 1 3.01 0c-.922.404-1.895.682-2.892.825-.731.1-1.47.127-2.206.083.215.23.425.464.631.7a11.423 11.423 0 0 1 2.584.074c.996.152 1.968.437 2.887.85-1 .126-2.012.116-3.01-.03a11.349 11.349 0 0 1-2.16-.554c.413.485.8.983 1.194 1.489.824.115 1.633.32 2.413.612.94.36 1.827.847 2.637 1.445a10.83 10.83 0 0 1-4.63-1.493 33.686 33.686 0 0 1 2.254 3.546 32.212 32.212 0 0 1 2.083 4.61c.152.419-.488.695-.637.267a32.207 32.207 0 0 0-4.118-7.837l-.082-.11a8.583 8.583 0 0 1-.296 1.755 8.402 8.402 0 0 1-.914 2.076 8.4 8.4 0 0 1 .31-2.247c.18-.623.43-1.224.745-1.791a32.12 32.12 0 0 0-1.505-1.898c-.02.8-.138 1.593-.351 2.364a9.58 9.58 0 0 1-1.042 2.369 9.58 9.58 0 0 1 .354-2.564 9.781 9.781 0 0 1 .97-2.254c-.293-.341-.591-.68-.9-1.01a11.624 11.624 0 0 1-.413 2.617 11.345 11.345 0 0 1-1.233 2.804c.001-1.026.142-2.047.418-3.035.253-.888.61-1.742 1.065-2.545a32.283 32.283 0 0 0-.881-.895 10.64 10.64 0 0 1-.946 2.484c-.45.83-1.011 1.596-1.667 2.276.206-.921.537-1.81.982-2.643.43-.788.957-1.52 1.57-2.175a59.123 59.123 0 0 0-.837-.799 10.222 10.222 0 0 1-3.196 4.542 10.22 10.22 0 0 1 3.196-4.555c-.275-.25-.555-.495-.84-.735a10.226 10.226 0 0 1-4.128 3.703 10.459 10.459 0 0 1 1.814-2.159 10.575 10.575 0 0 1 2.291-1.56c-.173-.146-.346-.295-.533-.44-.12-.095-.242-.188-.365-.281a9.303 9.303 0 0 1-1.686 1.43 9.125 9.125 0 0 1-2.227 1.048 9.12 9.12 0 0 1 1.865-1.616 9.352 9.352 0 0 1 1.936-.953c-.223-.149-.444-.32-.67-.484z"/>
  <path fill="#13a17f" d="M9.404 85.446a2.755 2.755 0 0 1 1.918-.44 2.883 2.883 0 0 1-1.316 1.465.601.601 0 0 1-.799-.213.617.617 0 0 1 .197-.812z"/>
  <path fill="#13a17f" d="M5.563 86.484a.618.618 0 0 1 .107-.833 2.617 2.617 0 0 1 1.446-.655c-.839.03-1.678.07-2.514.133-.267.022-.31-.386-.048-.404l.469-.03a1.68 1.68 0 0 1-.784-.364.415.415 0 0 1-.098-.554.406.406 0 0 1 .554-.099c.362.235.636.582.78.988a61.71 61.71 0 0 1 2.467-.1 2.54 2.54 0 0 1-1.332-.568.61.61 0 0 1-.144-.817.596.596 0 0 1 .818-.144 2.87 2.87 0 0 1 1.172 1.523h2.447a3.198 3.198 0 0 1-1.597-.706.774.774 0 0 1-.181-1.038.756.756 0 0 1 1.038-.181 3.637 3.637 0 0 1 1.495 1.954c.554.023 1.107.053 1.659.09a2.957 2.957 0 0 1-.948-.532.774.774 0 0 1-.181-1.038.757.757 0 0 1 1.038-.181 3.655 3.655 0 0 1 1.47 1.863c.645.059 1.293.125 1.935.205l.719.096a1.971 1.971 0 0 1-.866-.559.484.484 0 0 1-.021-.657.474.474 0 0 1 .658-.022c.39.34.653.803.745 1.313.71.103 1.421.218 2.131.346.267.048.2.452-.058.404a59.66 59.66 0 0 0-2.579-.41 2.289 2.289 0 0 1-.596 1.35.475.475 0 0 1-.658.05.485.485 0 0 1-.05-.657 2.095 2.095 0 0 1 1.115-.772 61.801 61.801 0 0 0-3.217-.349h-.08a2.885 2.885 0 0 1-1.313 1.456.601.601 0 0 1-.8-.213.617.617 0 0 1 .214-.798c.425-.296.93-.457 1.449-.463a59.683 59.683 0 0 0-5.434-.144l-.48.016a2.893 2.893 0 0 1-1.116 1.597.602.602 0 0 1-.83-.096z"/>
  <path fill="#13a27f" d="M23.676 83.346s-3.197.21-5.693-3.573l1.332-.988-1.92.224-1.359-1.821 1.947-.186-2.565-.634 2.286-1.044-2.93.198a13.138 13.138 0 0 1-1.484-6.1s3.343-.031 6.926 4.031l-.536 1.75.972-1.172s2.398 2.928 3.245 5.372l-.656 1.31.847-.783s.528 1.893-.412 3.416z"/>
  <path fill="#1f6353" d="M21.753 76.696c-.141.86-.21 1.73-.208 2.601a52.73 52.73 0 0 0-1.052-1.698 5.47 5.47 0 0 1-.045-.825v-.17c0-.072 0-.137.016-.203.013-.144.034-.285.058-.426a.209.209 0 0 0-.101-.216.21.21 0 0 0-.08-.026.24.24 0 0 0-.266.192 5.822 5.822 0 0 0-.088.953 53.73 53.73 0 0 0-3.031-4.084l-.245-.293a.18.18 0 0 0 0-.045 4.624 4.624 0 0 1-.04-.533v-.13a1.045 1.045 0 0 1 0-.112v-.245a.212.212 0 0 0-.102-.215.212.212 0 0 0-.08-.027.24.24 0 0 0-.266.192 5.14 5.14 0 0 0-.027.567 56.655 56.655 0 0 0-1.483-1.662c-.187-.2-.551.07-.365.266a48.748 48.748 0 0 1 2.866 3.339 18.236 18.236 0 0 0-2.054-.498.242.242 0 0 0-.266.192.21.21 0 0 0 .181.242c.84.153 1.668.367 2.477.642.034.008.07.008.104 0a53.01 53.01 0 0 1 3.703 5.356c.555.946 1.082 1.91 1.579 2.89.123.246.533.078.418-.17a51.2 51.2 0 0 0-1.382-2.552.222.222 0 0 0 .03-.12 15.25 15.25 0 0 1 .188-3.144c.045-.267-.38-.32-.44-.038z"/>
  <path fill="#02cc9b" d="M24.264 86.825s-4.397 2.055-9.959-1.863l1.313-2.117-2.565 1.371-2.908-1.802 2.623-1.33-3.92.531 2.623-2.723-3.977 1.885a19.781 19.781 0 0 1-5.444-7.72s4.661-1.89 11.909 1.829l.197 2.742.714-2.178s4.968 2.769 7.509 5.732l-.192 2.193.754-1.565s1.782 2.372 1.323 5.015z"/>
  <path fill="#258f76" d="M17.883 78.58a23.826 23.826 0 0 0 1.145 3.749c-.8-.613-1.598-1.214-2.397-1.797a8.235 8.235 0 0 1-.52-1.132c-.04-.104-.05-.14-.082-.242a8.37 8.37 0 0 1-.24-.924.316.316 0 0 0-.389-.24.362.362 0 0 0-.266.41c.096.472.232.935.405 1.384a79.584 79.584 0 0 0-6.5-4.046l-.506-.266a.265.265 0 0 0-.018-.064 6.94 6.94 0 0 1-.352-.727l-.072-.184a1.59 1.59 0 0 1-.058-.157v-.018l-.016-.048-.035-.107a4.214 4.214 0 0 1-.059-.202.314.314 0 0 0-.262-.246.337.337 0 0 0-.127.006.36.36 0 0 0-.266.41c.074.27.163.538.266.799a84.51 84.51 0 0 0-2.993-1.507c-.37-.178-.736.402-.36.58a81.585 81.585 0 0 1 5.86 3.094 27.48 27.48 0 0 0-3.146.423.36.36 0 0 0-.266.41.318.318 0 0 0 .389.24 26.195 26.195 0 0 1 3.833-.48.339.339 0 0 0 .151-.043 79.82 79.82 0 0 1 8.066 5.538 79.268 79.268 0 0 1 3.809 3.178c.309.266.799-.192.493-.468a80.261 80.261 0 0 0-3.346-2.814.333.333 0 0 0-.027-.184 22.957 22.957 0 0 1-1.47-4.504c-.093-.41-.735-.24-.644.178z"/>
  <path fill="#246d79" d="M79.59 59.57c-.431.36-.716.866-.799 1.422.56-.052 1.085-.3 1.48-.7a.5.5 0 0 0 .025-.698.514.514 0 0 0-.706-.024z"/>
  <path fill="#246d79" d="M81.332 56.762a.514.514 0 0 0-.69-.112 2.178 2.178 0 0 0-.868.996 44.97 44.97 0 0 1 .706-1.973c.077-.205-.235-.338-.312-.133-.048.122-.09.245-.136.365a1.4 1.4 0 0 0-.103-.711.345.345 0 0 0-.419-.21.337.337 0 0 0-.21.417c.1.345.312.646.602.858a49.33 49.33 0 0 0-.669 1.94c.069-.4.02-.81-.138-1.184a.508.508 0 0 0-.618-.31.497.497 0 0 0-.31.619 2.4 2.4 0 0 0 .936 1.296 45.26 45.26 0 0 0-.506 1.712l-.064.242c.072-.485.008-.98-.184-1.432a.644.644 0 0 0-.786-.394.63.63 0 0 0-.394.785c.196.675.62 1.26 1.201 1.656-.113.446-.22.89-.322 1.331a2.461 2.461 0 0 0-.208-.887.645.645 0 0 0-.786-.393.632.632 0 0 0-.394.785c.19.652.594 1.222 1.145 1.619a56.399 56.399 0 0 0-.298 1.597c-.034.197-.064.396-.096.596a1.634 1.634 0 0 0-.24-.822.4.4 0 0 0-.654-.078.394.394 0 0 0-.051.437 1.9 1.9 0 0 0 .868.908 49.42 49.42 0 0 0-.229 1.77c-.024.218.312.266.336.05.08-.718.178-1.437.287-2.15.413.084.842.03 1.22-.155a.394.394 0 0 0 .197-.511.401.401 0 0 0-.511-.197c-.364.131-.675.38-.882.706.14-.888.304-1.77.49-2.647l.014-.063a2.399 2.399 0 0 0 1.475-.7.501.501 0 0 0 .024-.698.513.513 0 0 0-.698-.024 2.153 2.153 0 0 0-.716 1.043 50.877 50.877 0 0 1 1.18-4.363c.04-.128.085-.253.128-.378a2.398 2.398 0 0 0 1.55-.505.5.5 0 0 0 .132-.698z"/>
  <path fill="#249c9c" d="M93.478 54.83c.907.748 1.905 1.38 2.97 1.879 1.128.513 2.321.871 3.545 1.065a13.726 13.726 0 0 0-3.113-2.005 14.045 14.045 0 0 0-3.285-1.035c.455-.334.916-.66 1.383-.977a11.093 11.093 0 0 0 5.455 2.505 11.342 11.342 0 0 0-2.57-1.656 11.505 11.505 0 0 0-2.85-.865c.589-.4 1.187-.785 1.795-1.156a7.8 7.8 0 0 0 1.486.91c.63.29 1.297.492 1.982.603a7.674 7.674 0 0 0-1.742-1.121c-.489-.224-1-.396-1.524-.514.314-.192.626-.386.946-.572a.532.532 0 0 0 .101-.732.532.532 0 0 0-.733-.102c-.74.429-1.467.884-2.184 1.35.296-.788.505-1.606.624-2.439a11.323 11.323 0 0 0 0-3.056 11.326 11.326 0 0 0-.831 2.942c-.12.9-.132 1.812-.038 2.715-.62.41-1.236.83-1.838 1.27a15.62 15.62 0 0 0 .267-3.586 15.231 15.231 0 0 0-.762-4.04 15.23 15.23 0 0 0-.373 4.094 15.6 15.6 0 0 0 .65 3.7 29.9 29.9 0 0 0-1.119.844 17.19 17.19 0 0 0-.556-3.887 16.766 16.766 0 0 0-1.766-4.169 16.748 16.748 0 0 0 .556 4.491 17.17 17.17 0 0 0 1.526 3.757c-.399.316-.793.638-1.182.966a17.17 17.17 0 0 0-1.146-3.543 16.767 16.767 0 0 0-2.423-3.823c.23 1.498.663 2.957 1.286 4.339A17.174 17.174 0 0 0 90 56.275c-.315.266-.629.532-.935.815a17.19 17.19 0 0 0-2.93-2.292 16.78 16.78 0 0 0-4.15-1.813 16.769 16.769 0 0 0 3.487 2.885 17.132 17.132 0 0 0 3.254 1.534c-.355.333-.71.672-1.065 1.014a17.19 17.19 0 0 0-3.676-1.637 16.796 16.796 0 0 0-4.472-.714 16.789 16.789 0 0 0 4.094 1.901c1.236.37 2.51.6 3.798.684-.245.243-.493.482-.735.73-.136.138-.266.282-.397.423a17.194 17.194 0 0 0-3.564-.919 16.807 16.807 0 0 0-4.528 0 16.78 16.78 0 0 0 4.36 1.244c1.1.149 2.212.19 3.32.122-.322.355-.639.71-.952 1.065-1.296-.11-2.6-.072-3.889.112-1.499.228-2.96.658-4.344 1.278 1.505.19 3.028.176 4.528-.043a17.08 17.08 0 0 0 3.25-.833c-.62.73-1.217 1.477-1.795 2.239-1.241.175-2.46.484-3.634.924a16.78 16.78 0 0 0-3.97 2.177c2.464-.21 4.849-.98 6.972-2.25a50.69 50.69 0 0 0-3.393 5.325 48.486 48.486 0 0 0-3.135 6.937c-.227.631.732 1.044.959.413A48.476 48.476 0 0 1 82.656 65.8l.123-.165c.056.893.205 1.778.444 2.641.315 1.1.777 2.15 1.375 3.125 0-1.141-.154-2.278-.458-3.378a12.894 12.894 0 0 0-1.122-2.697 49.25 49.25 0 0 1 2.264-2.856 14.77 14.77 0 0 0 .533 3.56c.36 1.254.887 2.454 1.569 3.566a14.419 14.419 0 0 0-.533-3.86 14.719 14.719 0 0 0-1.46-3.391 50.09 50.09 0 0 1 1.356-1.518 17.52 17.52 0 0 0 .62 3.94 17.088 17.088 0 0 0 1.865 4.22 17.075 17.075 0 0 0-.631-4.569 17.482 17.482 0 0 0-1.622-3.833c.433-.458.877-.906 1.332-1.344a16.036 16.036 0 0 0 1.425 3.727 15.755 15.755 0 0 0 2.509 3.423 15.722 15.722 0 0 0-1.478-3.993 16.048 16.048 0 0 0-2.363-3.272c.412-.4.832-.795 1.26-1.182a15.385 15.385 0 0 0 4.816 6.834 15.386 15.386 0 0 0-4.795-6.855c.414-.376.835-.745 1.263-1.105a15.39 15.39 0 0 0 6.19 5.601 15.735 15.735 0 0 0-2.73-3.25 15.912 15.912 0 0 0-3.463-2.348c.266-.221.533-.445.8-.66.178-.147.364-.283.548-.426.758.815 1.61 1.537 2.538 2.15a13.727 13.727 0 0 0 3.351 1.58 13.725 13.725 0 0 0-2.791-2.434 14.09 14.09 0 0 0-2.917-1.427c.333-.266.666-.532 1.004-.774z"/>
  <path fill="#13a17f" d="M89.79 85.446a2.756 2.756 0 0 0-1.919-.44c.254.628.72 1.146 1.316 1.465a.602.602 0 0 0 .8-.213.617.617 0 0 0-.198-.812z"/>
  <path fill="#13a17f" d="M93.624 86.484a.617.617 0 0 0-.106-.833 2.617 2.617 0 0 0-1.446-.655c.839.03 1.678.07 2.514.133.266.022.309-.386.048-.404l-.469-.03a1.68 1.68 0 0 0 .783-.364.415.415 0 0 0 .099-.554.405.405 0 0 0-.554-.099 1.958 1.958 0 0 0-.78.988 63.686 63.686 0 0 0-2.467-.1 2.54 2.54 0 0 0 1.332-.568.61.61 0 0 0 .144-.817.597.597 0 0 0-.818-.144 2.87 2.87 0 0 0-1.172 1.523h-2.447a3.198 3.198 0 0 0 1.597-.706.774.774 0 0 0 .184-1.038.756.756 0 0 0-1.039-.181 3.637 3.637 0 0 0-1.494 1.954c-.554.023-1.107.053-1.66.09.347-.117.668-.298.949-.532a.775.775 0 0 0 .18-1.038.757.757 0 0 0-1.038-.181 3.656 3.656 0 0 0-1.47 1.863 58.47 58.47 0 0 0-1.934.205l-.72.096c.334-.106.633-.3.866-.559a.484.484 0 0 0 .022-.657.475.475 0 0 0-.658-.022 2.28 2.28 0 0 0-.746 1.313c-.71.103-1.42.218-2.131.346-.266.048-.2.452.059.404.855-.157 1.715-.29 2.578-.41.044.504.254.978.597 1.35a.474.474 0 0 0 .658.05.486.486 0 0 0 .05-.657 2.095 2.095 0 0 0-1.116-.772 61.789 61.789 0 0 1 3.218-.349h.08a2.886 2.886 0 0 0 1.313 1.456.601.601 0 0 0 .799-.213.615.615 0 0 0-.213-.798 2.593 2.593 0 0 0-1.45-.463 59.686 59.686 0 0 1 5.435-.144l.479.016a2.89 2.89 0 0 0 1.116 1.597.602.602 0 0 0 .828-.096z"/>
  <path fill="#13a27f" d="M75.507 83.345s3.217.2 5.705-3.572l-1.332-.988 1.921.224 1.358-1.821-1.947-.186 2.555-.634-2.291-1.038 2.93.197a13.135 13.135 0 0 0 1.484-6.1s-3.343-.031-6.926 4.031l.546 1.744-.972-1.171s-2.397 2.928-3.244 5.372l.655 1.31-.847-.783s-.525 1.893.405 3.415z"/>
  <path fill="#1f6353" d="M77.44 76.696c.14.858.209 1.726.206 2.595.34-.572.69-1.14 1.052-1.698.036-.274.05-.55.045-.825v-.17c0-.073 0-.137-.016-.203a5.748 5.748 0 0 0-.059-.426.213.213 0 0 1 .102-.216.237.237 0 0 1 .251.017.24.24 0 0 1 .095.148c.056.315.085.634.088.953a53.703 53.703 0 0 1 3.031-4.083l.245-.293a.171.171 0 0 1 0-.045 4.58 4.58 0 0 0 .04-.533v-.13a1.045 1.045 0 0 0 0-.112v-.245a.235.235 0 0 1 .003-.084.215.215 0 0 1 .178-.158.239.239 0 0 1 .266.192c.02.188.029.377.027.566.483-.562.978-1.116 1.484-1.66.186-.2.551.068.365.266a48.74 48.74 0 0 0-2.866 3.338c.674-.206 1.36-.372 2.053-.498a.238.238 0 0 1 .266.192.213.213 0 0 1-.18.242c-.84.153-1.669.367-2.478.642a.227.227 0 0 1-.103 0 52.989 52.989 0 0 0-3.698 5.361 52.874 52.874 0 0 0-1.579 2.891c-.123.245-.533.077-.418-.17.437-.865.898-1.715 1.382-2.553a.222.222 0 0 1-.03-.12 15.238 15.238 0 0 0-.188-3.144c-.056-.266.391-.32.437-.037z"/>
  <path fill="#02cc9b" d="M74.932 86.825s4.397 2.055 9.959-1.863l-1.313-2.117 2.565 1.371 2.908-1.802-2.623-1.33 3.92.531-2.623-2.723 3.977 1.885a19.779 19.779 0 0 0 5.444-7.72s-4.661-1.89-11.909 1.829l-.197 2.742-.714-2.178s-4.98 2.782-7.508 5.737l.191 2.194-.753-1.566s-1.785 2.367-1.324 5.01z"/>
  <path fill="#258f76" d="M81.31 78.58a23.857 23.857 0 0 1-1.145 3.749c.8-.613 1.598-1.214 2.397-1.797a8.2 8.2 0 0 0 .52-1.132c.04-.104.05-.14.082-.242.032-.101.062-.194.088-.293a8.41 8.41 0 0 0 .152-.63.32.32 0 0 1 .143-.204.322.322 0 0 1 .246-.037.363.363 0 0 1 .266.41 8.753 8.753 0 0 1-.405 1.384 79.558 79.558 0 0 1 6.5-4.046l.506-.266a.293.293 0 0 1 .018-.064 6.76 6.76 0 0 0 .352-.727l.072-.184a1.59 1.59 0 0 0 .059-.157v-.018l.015-.048.035-.107a4.07 4.07 0 0 0 .059-.202.315.315 0 0 1 .262-.246.338.338 0 0 1 .127.006.36.36 0 0 1 .266.41c-.074.27-.163.538-.266.799a84.384 84.384 0 0 1 2.993-1.507c.37-.178.736.402.36.58a81.626 81.626 0 0 0-5.86 3.094c1.058.083 2.11.228 3.151.434a.359.359 0 0 1 .267.41.319.319 0 0 1-.263.246.317.317 0 0 1-.126-.007 26.2 26.2 0 0 0-3.839-.49.339.339 0 0 1-.151-.043 79.808 79.808 0 0 0-8.066 5.537 79.216 79.216 0 0 0-3.809 3.18c-.309.265-.799-.193-.493-.47a80.25 80.25 0 0 1 3.346-2.813.331.331 0 0 1 .027-.184 22.95 22.95 0 0 0 1.48-4.496c.083-.418.725-.248.635.17z"/>
  <path fill="#051c3c" d="m49.454 50.05.338-2.563c.181-1.369-.692-2.479-1.95-2.479h-20.49l-.666 5.042-.41 3.112-3.852 29.121c-.418 3.173 1.598 5.745 4.528 5.745H71.7c2.914 0 5.618-2.572 6.036-5.745l4.262-32.233z"/>
  <path fill="#fff" d="m65.681 56.403-28.36-16.73c13.537-7.368 6.66-26.788 20.188-34.157l28.36 16.742c-13.537 7.366-6.652 26.79-20.188 34.145z"/>
  <path fill="#d9d9d9" d="m59.45 33.61-10.955-6.467c1.833-6.695 2.778-13.915 8.137-18.529l10.956 6.467c-5.36 4.613-6.302 11.833-8.137 18.528z"/>
  <path fill="#209cee" d="m80.019 24.225-11.595-6.85a16 16 0 0 1 1.167-1.118l11.602 6.85c-.41.352-.802.725-1.174 1.118z"/>
  <path fill="#868686" d="m73.323 22.875-6.34-3.743c.194-.273.395-.54.605-.798l6.34 3.727c-.21.27-.412.541-.605.814zM54.36 32.533l-6.339-3.742c.1-.327.196-.656.29-.988l6.34 3.743c-.094.332-.191.66-.29.987z"/>
  <path fill="#d9d9d9" d="m58.684 36.17-10.956-6.46c.053-.162.106-.324.157-.488l10.95 6.467c-.048.163-.098.324-.151.482zm-.312.911-10.955-6.466.167-.48 10.956 6.467-.168.48zm19.175-9.448-11.6-6.85.173-.303 11.603 6.85zm-.831 1.656-11.603-6.85.147-.32 11.603 6.85Zm-.711 1.728-11.603-6.85.125-.333 11.603 6.85Zm-.613 1.783L63.79 25.953l.109-.34L75.5 32.461Zm-.541 1.829-11.602-6.85.098-.349 11.603 6.85zm-.49 1.859-11.602-6.85.09-.354 11.603 6.85Zm-.468 1.868-11.595-6.85.088-.354 11.603 6.85zm-.469 1.869-11.603-6.85.09-.354 11.603 6.85Zm-.498 1.855-11.603-6.85.096-.348 11.603 6.85zm-.546 1.824-11.603-6.85.11-.34 11.602 6.85Zm-.624 1.778-11.59-6.85.126-.332 11.595 6.85zm-.724 1.72-11.603-6.85.147-.32 11.602 6.853Z"/>
  <path fill="#d9d9d9" d="M25.695 63.114h39.882l4.211-44.311H29.906Z"/>
  <path fill="#0c6aa7" d="M24.976 62.97h39.88l3.563-45.472H28.537Z"/>
  <path fill="#209cee" d="M24.224 61.503H64.7l2.968-45.472H32.383Z"/>
  <path fill="#fff" d="M65.06 63.071H25.18V19.836l4.803-4.8H65.06Z"/>
  <path fill="#d9d9d9" d="M43.333 18.803H27.927v24.326h15.406Z"/>
  <path fill="none" stroke="#fff" stroke-linecap="round" stroke-linejoin="round" stroke-width=".265" d="M42.249 19.745 28.907 42.04m0-22.295L42.25 42.04"/>
  <path fill="#209cee" d="M62.452 18.803H46.138v1.882h16.314z"/>
  <path fill="#868686" d="M55.053 22.191h-8.915V23.4h8.915zM36.842 43.933h-8.915v1.209h8.915z"/>
  <path fill="#d9d9d9" d="M43.333 45.674H27.927v.605h15.406Zm0 1.134H27.927v.604h15.406Zm19.119-21.47H46.138v.423h16.314zm0 2.236H46.138v.423h16.314zm0 2.239H46.138v.423h16.314zm0 2.239H46.138v.423h16.314zm0 2.239H46.138v.423h16.314zm0 2.236H46.138v.423h16.314zm0 2.239H46.138v.423h16.314zm0 2.239H46.138v.423h16.314zm0 2.238H46.138v.424h16.314zm0 2.239H46.138v.424h16.314zm0 2.237H46.138v.423h16.314zm0 2.239H46.138v.423h16.314z"/>
  <path fill="#d9d9d9" d="m245.866 200.728-74.94-3.652v-6.56c0-2.669-1.06-5.228-2.948-7.115a10.07 10.07 0 0 0-7.119-2.947l-65.658-.1v11.53l84.051 38.586" style="mix-blend-mode:multiply" transform="scale(.26458)"/>
  <path fill="#283356" d="M44.433 53.16v-2.348a2.273 2.273 0 0 0-2.275-2.273H21.665v34.219a5.272 5.272 0 0 0 5.276 5.273H71.69a5.279 5.279 0 0 0 5.258-5.273V53.16Z"/>
  <path fill="#051c3c" d="M46.14 71.316H25.3v11.477h20.84z"/>
  <path fill="#72c0f4" d="M35.72 72.91h-8.483v8.48h8.484zm9.078 0H37.37v1.803h7.43zm0 2.393H37.37v.49h7.43zm0 1.084H37.37v.49h7.43zm-6.435 1.736h-.994v.993h.994zm1.944 0h-.993v.993h.993zm1.942 0h-.994v.993h.994zm2.549 2.273h-.993v.993h.993z"/>
  <path fill="#209cee" d="M59.323 70.568a15.403 15.403 0 0 0 16.706 3.699 15.388 15.388 0 0 0 .62-28.434 15.41 15.41 0 0 0-16.852 2.969 15.407 15.407 0 0 0-.474 21.766zm3.196-18.918a11.456 11.456 0 0 1 19.368 8.517 11.444 11.444 0 0 1-7.29 10.42 11.458 11.458 0 0 1-12.424-2.738 11.46 11.46 0 0 1 .354-16.196z"/>
  <path fill="#006bff" d="M78.949 68.739c4.782-4.78 4.782-12.528 0-17.307-4.782-4.78-12.535-4.78-17.316 0-4.782 4.779-4.782 12.528 0 17.307 4.781 4.779 12.534 4.779 17.316 0z" opacity=".19"/>
  <path fill="#fff" d="M75.57 68.074a4.678 4.678 0 0 0 0-6.619 4.684 4.684 0 0 0-6.623 0 4.678 4.678 0 0 0 0 6.619 4.684 4.684 0 0 0 6.622 0zm3.516-6.718a1.256 1.256 0 1 0-1.778-1.777 1.256 1.256 0 1 0 1.778 1.777zm-14.426-6.9a7.923 7.923 0 0 1 3.517-2.044l-1.218-2.228a10.45 10.45 0 0 0-6.84 7.512 10.437 10.437 0 0 0 2.784 9.77l1.76-1.76a7.955 7.955 0 0 1-.003-11.25z" opacity=".35"/>
  <path fill="#72c0f4" d="M59.957 70.411A14.616 14.616 0 0 0 84.9 60.083a14.6 14.6 0 0 0-9.02-13.492 14.62 14.62 0 0 0-15.924 3.165 14.6 14.6 0 0 0 0 20.655zM78.948 51.43a12.244 12.244 0 0 1-8.657 20.912 12.257 12.257 0 0 1-11.321-7.564 12.242 12.242 0 0 1 2.665-13.348 12.257 12.257 0 0 1 17.313 0z"/>
  <path fill="#fff" d="M72.257 52.375a7.925 7.925 0 0 1 3.66 2.082l1.76-1.76a10.39 10.39 0 0 0-5.42-2.873z" opacity=".54"/>
  <path fill="#209cee" d="M97.811 32.577a3.572 3.572 0 0 1 0 5.058L87.381 48.06l-5.06-5.058 10.43-10.425a3.575 3.575 0 0 1 3.9-.776c.434.18.828.444 1.16.776z"/>
  <path fill="#283356" d="m78.726 47.37 4.283 4.28c.55.55 1.442.55 1.993 0l2.665-2.663c.55-.55.55-1.442 0-1.992l-4.283-4.28a1.41 1.41 0 0 0-1.993 0l-2.665 2.663c-.55.55-.55 1.442 0 1.991z"/>
  <path fill="#d9d9d9" d="m95.17 74.97 18.152-18.142-2.829 20.465Z" style="mix-blend-mode:multiply" transform="scale(.26458)"/>
  <path fill="#ebe6fc" d="m25.18 19.836 4.803-4.8v4.8z"/>
  <path fill="#feae1a" d="M92.663 69.551H90.64v-2.023a.149.149 0 0 0-.246-.093.148.148 0 0 0-.05.093v2.023H88.32a.149.149 0 1 0 0 .295h2.024v2.024a.15.15 0 0 0 .246.092.149.149 0 0 0 .05-.092v-2.024h2.024a.148.148 0 0 0 .156-.085.146.146 0 0 0 .013-.062.143.143 0 0 0-.013-.062.154.154 0 0 0-.093-.081.148.148 0 0 0-.063-.005z"/>
  <path fill="#283356" d="M88.934 53.32h-1.385v-1.376a.101.101 0 1 0-.203 0v1.376H85.97a.104.104 0 0 0-.094.063.103.103 0 0 0-.008.038.102.102 0 0 0 .102.102h1.366v1.376a.101.101 0 1 0 .202 0v-1.376h1.396a.104.104 0 0 0 .094-.063.103.103 0 0 0 .008-.039.102.102 0 0 0-.102-.101zm3.18-3.546h-.732v-.732a.053.053 0 0 0-.107 0v.732h-.743a.056.056 0 0 0-.037.015.053.053 0 0 0 .037.091h.733v.732c0 .014.006.028.015.038a.053.053 0 0 0 .076 0 .053.053 0 0 0 .015-.038v-.732h.733a.053.053 0 0 0 .038-.091.053.053 0 0 0-.038-.015z"/>
  <path fill="#129f7d" d="M65.399 89.49s2.397-.088 3.627-2.878l-1.134-.59 1.449.018.708-1.358h-1.465l1.78-.612-1.852-.562 2.18-.069a8.228 8.228 0 0 0 .114-4.331s-2.467.213-4.446 3.28l.682 1.17-.903-.744s-1.294 2.193-1.529 3.95l.69.86-.749-.484c-.022.862.28 1.7.848 2.35z"/>
  <path fill="#1f6353" d="M65.76 84.746c.239.578.429 1.175.568 1.784.16-.421.325-.839.503-1.252a3.678 3.678 0 0 0-.098-.575c0-.05-.019-.069-.032-.117-.014-.048-.03-.093-.045-.138a4.562 4.562 0 0 0-.112-.29.127.127 0 0 1 .093-.181.21.21 0 0 1 .221.114c.09.212.162.431.216.655a31.103 31.103 0 0 1 1.571-3.054l.133-.22a3.098 3.098 0 0 0-.056-.405l-.02-.09a.708.708 0 0 0-.02-.078v-.021l-.015-.05-.032-.097a.134.134 0 0 1 .003-.113.131.131 0 0 1 .09-.068.205.205 0 0 1 .221.115c.045.128.082.259.112.391.266-.424.541-.842.826-1.254.106-.151.418 0 .311.163a31.612 31.612 0 0 0-1.574 2.515 12.86 12.86 0 0 1 1.433-.49.204.204 0 0 1 .221.115.131.131 0 0 1-.04.157.134.134 0 0 1-.053.024c-.588.163-1.164.369-1.72.618a.17.17 0 0 1-.075.013 31.194 31.194 0 0 0-2.515 6.11c-.053.178-.389.09-.335-.088.177-.63.38-1.251.607-1.864a.168.168 0 0 1-.04-.082 10.806 10.806 0 0 0-.642-2.164c-.101-.208.213-.275.296-.083z"/>
  <path fill="#02cc9b" d="M65.66 89.544s1.63 1.065 3.729-.219l-.477-.918.951.687 1.1-.57-.972-.676 1.462.42-.962-1.232 1.476.967a6.656 6.656 0 0 0 2.09-2.815s-1.73-1.006-4.468.104l-.094 1.092-.253-.913s-1.877.849-2.85 1.903l.056.892-.266-.668a2.78 2.78 0 0 0-.522 1.946z"/>
  <path fill="#1f6353" d="M68.105 86.57a9.127 9.127 0 0 1-.456 1.445c.301-.205.605-.402.914-.594a3.04 3.04 0 0 0 .202-.428l.032-.094.035-.111c.024-.08.042-.163.061-.245a.104.104 0 0 1 .147-.077.17.17 0 0 1 .076.074.166.166 0 0 1 .017.104 3.37 3.37 0 0 1-.163.533 25.17 25.17 0 0 1 2.461-1.28l.192-.086a.086.086 0 0 1 0-.024 2.56 2.56 0 0 0 .136-.266l.03-.07a.57.57 0 0 0 .023-.06v-.019l.014-.04.024-.077a.101.101 0 0 1 .018-.044.1.1 0 0 1 .036-.031.108.108 0 0 1 .046-.012c.016 0 .032.003.046.01a.164.164 0 0 1 .093.178 2.97 2.97 0 0 1-.109.31c.373-.159.75-.308 1.132-.448.141-.05.267.2.13.253-.752.277-1.49.587-2.213.932.398.09.79.204 1.175.34a.166.166 0 0 1 .093.179.102.102 0 0 1-.054.075.097.097 0 0 1-.046.011.1.1 0 0 1-.046-.01 9.833 9.833 0 0 0-1.428-.39.146.146 0 0 1-.056-.028 25.228 25.228 0 0 0-4.488 2.849c-.117.093-.299-.12-.181-.216.415-.331.839-.65 1.27-.953a.14.14 0 0 1 0-.072c.255-.555.45-1.135.584-1.73.04-.152.29-.05.253.112z"/>
  <path fill="#129f7d" d="M32.465 88.793s-1.893.71-3.752-1.065l.69-.828-1.12.487-.99-.825 1.14-.469-1.58.101 1.252-1.038-1.715.655a6.92 6.92 0 0 1-1.51-3.32s1.984-.636 4.528 1.1l-.15 1.129.461-.871s1.721 1.28 2.472 2.569l-.266.892.423-.62a2.89 2.89 0 0 1 .117 2.103z"/>
  <path fill="#1f6353" d="M30.633 85.225c.004.526.051 1.05.141 1.568l-.799-.799a3.1 3.1 0 0 1-.109-.479v-.49a.112.112 0 0 0-.04-.087.112.112 0 0 0-.093-.022.172.172 0 0 0-.133.16 3.49 3.49 0 0 0 .045.58 26.155 26.155 0 0 0-2.216-1.85l-.176-.128a.107.107 0 0 0 0-.026 2.588 2.588 0 0 1-.077-.31l-.014-.076a.674.674 0 0 1 0-.067v-.149a.108.108 0 0 0-.04-.087.11.11 0 0 0-.093-.022.174.174 0 0 0-.133.16c.007.113.02.226.04.338a27.876 27.876 0 0 0-1.05-.706c-.13-.082-.322.144-.188.227.71.449 1.39.929 2.04 1.44-.425.003-.85.031-1.27.085a.173.173 0 0 0-.133.16.11.11 0 0 0 .04.087.11.11 0 0 0 .092.022c.51-.065 1.024-.092 1.537-.08a.138.138 0 0 0 .064 0 26.068 26.068 0 0 1 3.937 3.919c.098.122.33-.056.232-.179-.355-.43-.715-.846-1.08-1.25a.143.143 0 0 0 0-.078 9.08 9.08 0 0 1-.204-1.89c-.056-.195-.322-.144-.32.029z"/>
</svg>
